{
    "topics": [
        {
            "title": "html",
            "description": ""
        },
        {
            "title": "javascript",
            "description": ""
        },
        {
            "title": "php",
            "description": ""
        },
        {
            "title": "sql_injection",
            "description": ""
        },
        {
            "title": "cross_site_scripting",
            "description": ""
        }
    ]
}
