{
    "bbnt_bank" : {
        "base" : "the_suspect_is_innocent",
        "custom" : "false"
    },
    "flying_helix" : {
        "base" : "easter_eggs_are_fun_314159265",
        "custom" : "true"
    },
    "html_1" : {
        "base" : "dont_leave_things_hidden",
        "custom" : "false"
    },
    "insecure_security" : {
        "base" : "this_site_has_met_a_terrible_fate",
        "custom" : "false"
    },
    "javascript_1" : {
        "base" : "javascript_is_fun",
        "custom" : "false"
    },
    "javascript_2" : {
        "base" : "this_is_not_really_secure_at_all",
        "custom" : "false"
    },
    "javacrypt_1" : {
        "base" : "childs_play",
        "custom" : "false"
    },
    "javacrypt_2" : {
        "base" : "that_was_pretty_impressive_not_bad",
        "custom" : "false"
    }
}
